{
    "AWSTemplateFormatVersion": "2010-09-09",
    "Description": "Create an ElastiCache (redis) cluster.",
    "Parameters": {
	"ClusterName": {
	    "Type": "String",
	    "Description": "The name for the Redis cluster"
	},
        "VpcId": {
            "Type": "AWS::EC2::VPC::Id",
            "Description": "Id of your VPC."
        },
        "DefaultSecurityGroup": {
            "Type": "AWS::EC2::SecurityGroup::Id",
            "Description": "Id of the default security group for your VPC."
        },
        "Subnet1": {
            "Type": "AWS::EC2::Subnet::Id",
            "Description": "A subnet of your VPC."
        },
        "Subnet2": {
            "Type": "AWS::EC2::Subnet::Id",
            "Description": "A different subnet of your VPC"
        },
        "CacheClusterType": {
            "Description": "ElastiCache (redis) instance type",
            "Default": "cache.m3.medium",
            "Type": "String"
        }
    },
    "Resources": {
        "ElastiCacheSubnetGroup": {
            "Type": "AWS::ElastiCache::SubnetGroup",
            "Properties": {
                "Description": "HCDC ElastiCache subnet group",
                "SubnetIds": [
                    {
                        "Ref": "Subnet1"
                    },
                    {
                        "Ref": "Subnet2"
                    }
                ]
            }
        },
        "CacheCluster": {
            "Type": "AWS::ElastiCache::ReplicationGroup",
            "Properties": {
		"ReplicationGroupId": {
		    "Ref": "ClusterName"
		},
                "ReplicationGroupDescription": "HCDC ElastiCache Cluster",
                "AutomaticFailoverEnabled": "True",
                "CacheNodeType": {
                    "Ref": "CacheClusterType"
                },
                "CacheSubnetGroupName": {
                    "Ref": "ElastiCacheSubnetGroup"
                },
                "Engine": "redis",
                "EngineVersion": "3.2.4",
                "NumCacheClusters": "2",
                "Port": 6379,
                "SecurityGroupIds": [
                    {
                        "Ref": "DefaultSecurityGroup"
                    }
                ]
            }
        }
    }
}
